TG_COLOR.DLL Called from [C:\Program Files (x86)\Samsung\Kies3\Kies3.exe]
TG_IMAGE.DLL Called from [C:\Program Files (x86)\Samsung\Kies3\External\TransModules\TG_IMAGE.DLL]
TG_AUDIO.DLL Called from [C:\Program Files (x86)\Samsung\Kies3\External\TransModules\TG_AUDIO.DLL]
Load ok! => TG_PVTR.DLL
TG_PVTR.DLL Called from [C:\Program Files (x86)\Samsung\Kies3\External\TransModules\TG_PVTR.dll]
TG_COLOR.DLL Called from [C:\Program Files (x86)\Samsung\Kies3\Kies3.exe]
TG_IMAGE.DLL Called from [C:\Program Files (x86)\Samsung\Kies3\External\TransModules\TG_IMAGE.DLL]
TG_AUDIO.DLL Called from [C:\Program Files (x86)\Samsung\Kies3\External\TransModules\TG_AUDIO.DLL]
Load ok! => TG_PVTR.DLL
